Text Analysis – Gabrielle Hoover
…
Analysis

Length of Headlines and Punctuation

To begin the analysis I want to start with a general look the structure of the headlines.

# A tibble: 1 × 3
  mean_length min_length max_length
        <dbl>      <int>      <int>
1        71.0          1        256

From this output, we can see the minimum, maximum, and mean length of headlines that are tagged with words relating to women. The mean length is 71 characters long which is about ten words total. This can be seen in the next output that prints a few of the questions that are asked in these headlines.

# A tibble: 15,383 × 1
  question                                                       
  <chr>                                                          
1 Should female cricketers play with shorter boundaries?         
2 Is Africa becoming a female sex tourism destination?           
3 Have you seen this missing Brackenfell woman?                  
4 WATCH: Why are women attracted to disturbed Joe Goldberg types?
5 Are women rising in senior management in SA?                   
# ℹ 15,378 more rows
…
Positive
104,764
0.33

Negative
212,979
0.67

What about men?

I am also curious about what the general sentiment of headlines related to women that also include the words “men” or “man” in them. From the outputted tibble below, it is clear that the most common words in these headlines are negative, and like in the previous sentiment analysis, quite sensitive and disturbing. Since these are the kind of words included in articles tagged with both men and women, one can assume that these acts of violence are being committed against one of the genders by the other. It can be inferred in today’s context that men are the perpetrators of these acts. What does that say about how men are treating women and how news sources are reporting on it?

# A tibble: 1,299 × 3
   word    sentiment     n
   <chr>   <chr>     <int>
 1 murder  negative    263
 2 death   negative    240
 3 killed  negative    231
 4 raped   negative    220
 5 rape    negative    207
 6 dead    negative    165
 7 killing negative    160
 8 raping  negative    137
 9 attack  negative    113
10 love    positive    101
# ℹ 1,289 more rows
…
